#number
#radius, mass, orbit, orbitperiod, start angle, r, g, b
5
30000,0,0,0,0,255,215,0,99
7500,0,125000,6,90,255,0,0,3
7500,0,125000,6,270,0,0,255,0
5000,0,200000,10,0,0,255,0,2
5000,0,200000,10,180,0,255,0,1
# missions
# start, end
5
3,2
2,1
1,3
3,4
4,0